{
    "name": "NIS_InputActions",
    "maps": [
        {
            "name": "Driving",
            "id": "74db1233-58ab-474b-bdca-37b26443bcd5",
            "actions": [
                {
                    "name": "Acceleration",
                    "type": "Button",
                    "id": "1d88bd4e-69cb-4c09-ade8-97fa45e65a6b",
                    "expectedControlType": "Button",
                    "processors": "",
                    "interactions": "",
                    "initialStateCheck": false
                },
                {
                    "name": "Steering",
                    "type": "Button",
                    "id": "ffc7c05b-4c21-4502-9d06-1cffe17b9df1",
                    "expectedControlType": "Button",
                    "processors": "",
                    "interactions": "",
                    "initialStateCheck": false
                },
                {
                    "name": "Brakes",
                    "type": "Button",
                    "id": "cb202d2d-d136-4b4f-8562-9986e0977ffa",
                    "expectedControlType": "Button",
                    "processors": "",
                    "interactions": "",
                    "initialStateCheck": false
                },
                {
                    "name": "HandBrake",
                    "type": "Button",
                    "id": "c3e52c21-69fe-495f-b90e-f726fead63bd",
                    "expectedControlType": "Button",
                    "processors": "",
                    "interactions": "",
                    "initialStateCheck": false
                },
                {
                    "name": "Reverse",
                    "type": "Button",
                    "id": "77d571fc-9491-4fba-bba7-feb2a09f4611",
                    "expectedControlType": "Button",
                    "processors": "",
                    "interactions": "",
                    "initialStateCheck": false
                },
                {
                    "name": "Nitrous",
                    "type": "Button",
                    "id": "d784712b-03dd-49dc-89ec-6f3b9987e693",
                    "expectedControlType": "Button",
                    "processors": "",
                    "interactions": "",
                    "initialStateCheck": false
                },
                {
                    "name": "Jump",
                    "type": "Button",
                    "id": "c8e9c808-46ab-4267-93a8-e79535a3791a",
                    "expectedControlType": "Button",
                    "processors": "",
                    "interactions": "",
                    "initialStateCheck": false
                },
                {
                    "name": "ResetPlayer",
                    "type": "Button",
                    "id": "e6672eab-0c2a-4768-9c0a-71f03f3c155a",
                    "expectedControlType": "Button",
                    "processors": "",
                    "interactions": "",
                    "initialStateCheck": false
                }
            ],
            "bindings": [
                {
                    "name": "",
                    "id": "6be4167d-3a19-4dad-baba-40a1f4284c13",
                    "path": "<Keyboard>/upArrow",
                    "interactions": "",
                    "processors": "",
                    "groups": "Keyboard",
                    "action": "Acceleration",
                    "isComposite": false,
                    "isPartOfComposite": false
                },
                {
                    "name": "",
                    "id": "bb7d1d96-e369-4ece-ac9f-f1ca7fa11b03",
                    "path": "<DualShockGamepad>/rightTrigger",
                    "interactions": "",
                    "processors": "",
                    "groups": "Controller",
                    "action": "Acceleration",
                    "isComposite": false,
                    "isPartOfComposite": false
                },
                {
                    "name": "1D Axis Keyboard",
                    "id": "5e7f5ca5-3140-4575-98cc-29083c17f2cc",
                    "path": "1DAxis",
                    "interactions": "",
                    "processors": "",
                    "groups": "",
                    "action": "Steering",
                    "isComposite": true,
                    "isPartOfComposite": false
                },
                {
                    "name": "negative",
                    "id": "1acdb312-8fb9-498c-84d4-94371a4c3ad0",
                    "path": "<Keyboard>/leftArrow",
                    "interactions": "",
                    "processors": "",
                    "groups": "Keyboard",
                    "action": "Steering",
                    "isComposite": false,
                    "isPartOfComposite": true
                },
                {
                    "name": "positive",
                    "id": "6e7b48e7-8acf-4331-aeb9-c53aa01f4135",
                    "path": "<Keyboard>/rightArrow",
                    "interactions": "",
                    "processors": "",
                    "groups": "Keyboard",
                    "action": "Steering",
                    "isComposite": false,
                    "isPartOfComposite": true
                },
                {
                    "name": "1D Axis Controller",
                    "id": "5697ad92-6909-41e1-b292-319cb67f3810",
                    "path": "1DAxis",
                    "interactions": "",
                    "processors": "",
                    "groups": "",
                    "action": "Steering",
                    "isComposite": true,
                    "isPartOfComposite": false
                },
                {
                    "name": "negative",
                    "id": "8cf8113d-25e1-49b5-b275-b1b5ea77e8a0",
                    "path": "<DualShockGamepad>/leftStick/left",
                    "interactions": "",
                    "processors": "",
                    "groups": "Controller",
                    "action": "Steering",
                    "isComposite": false,
                    "isPartOfComposite": true
                },
                {
                    "name": "positive",
                    "id": "8b383cec-9e9e-4264-ae65-26decf175281",
                    "path": "<DualShockGamepad>/leftStick/right",
                    "interactions": "",
                    "processors": "",
                    "groups": "Controller",
                    "action": "Steering",
                    "isComposite": false,
                    "isPartOfComposite": true
                },
                {
                    "name": "",
                    "id": "bb1ec37e-091c-4d86-9118-d7ad996bcf8f",
                    "path": "<Keyboard>/downArrow",
                    "interactions": "",
                    "processors": "",
                    "groups": "Keyboard",
                    "action": "Brakes",
                    "isComposite": false,
                    "isPartOfComposite": false
                },
                {
                    "name": "",
                    "id": "3614ba28-288e-45c4-90ac-728ebcb991fc",
                    "path": "<DualShockGamepad>/leftTrigger",
                    "interactions": "",
                    "processors": "",
                    "groups": "Controller",
                    "action": "Brakes",
                    "isComposite": false,
                    "isPartOfComposite": false
                },
                {
                    "name": "",
                    "id": "05cdcd98-2cf6-44ab-a48e-45e7e6cdc2e1",
                    "path": "<Keyboard>/space",
                    "interactions": "",
                    "processors": "",
                    "groups": "Keyboard",
                    "action": "HandBrake",
                    "isComposite": false,
                    "isPartOfComposite": false
                },
                {
                    "name": "",
                    "id": "cae676bb-3ff5-4fa6-a487-1d05f7ff2309",
                    "path": "<DualShockGamepad>/buttonWest",
                    "interactions": "",
                    "processors": "",
                    "groups": "Controller",
                    "action": "HandBrake",
                    "isComposite": false,
                    "isPartOfComposite": false
                },
                {
                    "name": "",
                    "id": "2bd9c76d-4dc9-4024-812a-d0b202e70b7b",
                    "path": "<Keyboard>/r",
                    "interactions": "",
                    "processors": "",
                    "groups": "Keyboard",
                    "action": "Reverse",
                    "isComposite": false,
                    "isPartOfComposite": false
                },
                {
                    "name": "",
                    "id": "2bb58bd5-640c-4e4b-a843-cd2b6a392779",
                    "path": "<DualShockGamepad>/leftShoulder",
                    "interactions": "",
                    "processors": "",
                    "groups": "Controller",
                    "action": "Reverse",
                    "isComposite": false,
                    "isPartOfComposite": false
                },
                {
                    "name": "",
                    "id": "885f66f7-efae-4ffe-bdd7-7aa2b265cbf4",
                    "path": "<Keyboard>/x",
                    "interactions": "",
                    "processors": "",
                    "groups": "Keyboard",
                    "action": "Nitrous",
                    "isComposite": false,
                    "isPartOfComposite": false
                },
                {
                    "name": "",
                    "id": "b986b8dd-e96b-4e78-9c1b-1867eb423142",
                    "path": "<DualShockGamepad>/buttonSouth",
                    "interactions": "",
                    "processors": "",
                    "groups": "Controller",
                    "action": "Nitrous",
                    "isComposite": false,
                    "isPartOfComposite": false
                },
                {
                    "name": "",
                    "id": "7c7b617e-2ad1-49e4-adc5-17007ede281f",
                    "path": "<Keyboard>/z",
                    "interactions": "",
                    "processors": "",
                    "groups": "Keyboard",
                    "action": "Jump",
                    "isComposite": false,
                    "isPartOfComposite": false
                },
                {
                    "name": "",
                    "id": "11258cac-0faf-4884-8923-c8fa6776cf08",
                    "path": "<DualShockGamepad>/buttonEast",
                    "interactions": "",
                    "processors": "",
                    "groups": "Controller",
                    "action": "Jump",
                    "isComposite": false,
                    "isPartOfComposite": false
                },
                {
                    "name": "",
                    "id": "4a0b87a4-1e24-4248-89d6-3fb9603ff9f2",
                    "path": "<Keyboard>/p",
                    "interactions": "",
                    "processors": "",
                    "groups": "Keyboard",
                    "action": "ResetPlayer",
                    "isComposite": false,
                    "isPartOfComposite": false
                },
                {
                    "name": "",
                    "id": "9f2897dd-2c6b-49a8-82d9-ffb451f0484b",
                    "path": "<DualShockGamepad>/buttonNorth",
                    "interactions": "",
                    "processors": "",
                    "groups": "Controller",
                    "action": "ResetPlayer",
                    "isComposite": false,
                    "isPartOfComposite": false
                }
            ]
        }
    ],
    "controlSchemes": [
        {
            "name": "Keyboard",
            "bindingGroup": "Keyboard",
            "devices": [
                {
                    "devicePath": "<Keyboard>",
                    "isOptional": false,
                    "isOR": false
                }
            ]
        },
        {
            "name": "Controller",
            "bindingGroup": "Controller",
            "devices": [
                {
                    "devicePath": "<DualShockGamepad>",
                    "isOptional": false,
                    "isOR": false
                }
            ]
        }
    ]
}